raw frame number,
30688,EK56WZL
31143,SN14TWY
31374,YY67URH
31850,DK15AYT
32347,LTZ1634
33411,LC67AKG
33642,PN19ECD
33915,GN66BNK
34594,YX66WHJ
36988,LJ67DKD
37100,YY16YKG
37653,BT65JGV
39501,YY16YKA
39739,BD65EWR
