raw frame number,,,CHECKED
70623,YX16OCN,,
70735,YX13EFM,,
70833,LJ67DJX,,
71099,YY16YKE,,
71841,HX03UGC,,
73157,YY16YKC,,
73409,YX16OHB,,
73507,YJ14BXD,,
74207,GF16XZG,,
74319,SH04OTZ,,
74508,BV66VLD,,
75936,LTZ1456,,
76629,LTZ1274,,
76741,YY16YKJ,,
76881,LTZ1772,,
77147,LF67EXZ,,
77826,SN66WOA,,
79009,LTZ1282,,
79135,LJ67DJO,,
79289,MM17TXO,,
