raw frame number,plate number,,,CHECKED
70658,YX16OCG,YX16OCG,,
70735,,LTZ1456,,
70875,BV66VKX,BV66VKX,,
73143,,BD65EVV,,
75362,YX16OBV,YX16OBV,,
75586,,LTZ1435,,
75838,YX67VFJ,YX67VFJ,,
76650,BV66VVW,BV66VJM,,
77833,YX66WHF,YX66WHF,,
