raw frame number,plate number,,,CHECKED
50463,YX18KPE,YX18KPE,,
51443,BV66VTF,BV66VJF,,
51590,BD65EVT,BD65EVT,,
56301,BP15OLN,BP15OLN,,
57316,LT77ITB,LTZ1778,,
57449,BV66VHA,BV66VHA,,
57533,WX66JVA,WX66JVA,,
57778,YY67URK,YY67URK,,
58625,BV66VKL,BV66VKL,,
59185,BV66VKU,BV66VKU,,
