raw frame number,plate number,,,CHECKED
20433,BV66VKT,BV66VKT,,
21427,,LTZ1701,,
22624,LT61EXS,,,
22631,LF67EZS,LF67EXS,,
22785,TZ16OAC,YX16OAC,,
,,,,
22995,SD61CXY,SN61CXY,,
23149,,RX58EPU,,
23814,,DL10ZRG,,
,,WA15EFG,,
23996,WU06GDY,WU16GDY,,
25088,LI19YUF,LA19YUF,,
25564,BD65EWS,BD65EWS,,
26208,CX15YSG,CX15YSG,,
26271,BV65LFM,MV65WFK,,
26341,TY67URR,,,
26348,YY67URR,YY67URR,,
26551,BO16UTZ,BU16OYX,,
27377,BU16OYS,,,
27384,BO16OYS,,,
27391,BU16OYS,BU16OYS,,
27398,BU16OVS,,,
27832,YY16OBZ,YX16OBZ,,
28658,,OU19UTT,,
29029,BV66VKT,BV66VKA,,
29190,,LTZ1811,,
29778,HV18GYK,,,
29785,HV17RYX,HV17RYK,,
