raw frame number,plate number,,,CHECKED
20006,LT72ITT,,,
20013,LT72ITT,,,
20020,LT72ITT,,,
20027,LT72ITT,,,
20034,LT72ITT,,,
20041,LT72ITT,,,
20048,LT72IIT,,,
20307,,YH68MWK,,
20762,GB66MJO,,,
20769,BG66MJO,,,
20776,BG66MJO,,,
20783,BG66MJO,,,
20790,BG66MJO,BG66MJO,,
20797,BG66MJO,,,
20804,BG66MJO,,,
20811,BG66MJO,,,
20818,BG66MJO,,,
20825,BG66MJO,,,
20832,BG66MJO,,,
20839,BG66MJO,,,
20846,BG66MJO,,,
20853,BG66MJO,,,
20860,BG66MJO,,,
20867,BG66MJO,,,
20874,BG66MJO,,,
20881,BG66MJO,,,
20888,BG66MJO,,,
20895,BG66MJO,,,
20902,BG66MJO,,,
20909,BG66MJO,,,
20916,BG66MJO,,,
20923,BG66MJO,,,
20930,BG66MJO,,,
20937,BG66MJO,,,
20944,BG66MJO,,,
20951,BG66MJO,,,
20958,BG66MJO,,,
20965,BG66MJO,,,
20972,BG66MJO,,,
20979,BG66MJO,,,
20986,BG66MJO,,,
20993,BG66MJO,,,
21000,BG66MJO,,,
21007,BG66MJO,,,
21014,BG66MJO,,,
21021,BG66MJO,,,
21028,BG66MJO,,,
21035,BG66MJO,,,
21042,BG66MJO,,,
21049,BG66MJO,,,
21056,BG66MJO,,,
21063,BG66MJO,,,
21070,BG66MJO,,,
21077,BG66MJO,,,
21084,BG66MJO,,,
21091,BG66MJO,,,
21098,BG66MJO,,,
21105,BG66MJO,,,
21112,BG66MJO,,,
21119,BG66MJO,,,
21126,BG66MJO,,,
21133,BG66MJO,,,
21140,BG66MJO,,,
21147,BG66MJO,,,
21154,BG66MJO,,,
21161,BG66MJO,,,
21168,BG66MJO,,,
21175,BG66MJO,,,
21182,BG66MJO,,,
21189,BG66MJO,,,
21196,BG66MJO,,,
21203,BG66MJO,,,
21210,BG66MJO,,,
21217,BG66MJO,,,
21224,BG66MJO,,,
21231,BG66MJO,,,
21238,BG66MJO,,,
21245,BG66MJO,,,
21252,BG66MJO,,,
21259,BG66MJO,,,
21266,BG66MJO,,,
21273,BG66MJO,,,
21280,BG66MJO,,,
21287,BG66MJO,,,
24332,SN18KMO,SN18KMO,,
24339,SN18KMO,,,
24346,SN18KMO,,,
24353,SN18KMO,,,
24360,SN18KMO,,,
24367,SN18KMO,,,
24388,SN18MMO,,,
24395,SN18KKO,,,
24402,SN18MMO,,,
24409,SN18KMO,,,
24416,SN18KMO,,,
24423,SN18KMO,,,
24430,SN18KMO,,,
24437,SN18KMO,,,
24444,SN18KMO,,,
24451,SN18KMO,,,
24458,SN18KMO,,,
24465,SN18KMO,,,
24472,SN18KMO,,,
24479,SN18KMO,,,
24486,SN18KMO,,,
24493,SN18KKO,,,
24500,SN18KMO,,,
24507,SN18KKO,,,
24514,SN18KMO,,,
24521,SN18KMO,,,
24528,SN18KMO,,,
24535,SN18KMO,,,
24542,SN18KMO,,,
24549,SN18KKO,,,
24556,SN18KKO,,,
24563,SN18KMO,,,
24570,SN18MMO,,,
24577,SN18KKO,,,
24584,SN18KMO,,,
24591,SN18KMO,,,
24598,SN18KKO,,,
24605,SN18KMO,,,
24612,SN18KMO,,,
24619,SN18KMO,,,
24626,SN18KMO,,,
24633,SN18KKO,,,
24640,SN18KKO,,,
24647,SN18KKO,,,
24654,SN18KKO,,,
24661,SN18KKO,,,
24668,SN18KKO,,,
24675,SN18KKO,,,
24682,SN18KKO,,,
24689,SN18KKO,,,
24696,SN18KKO,,,
24703,SN18KKO,,,
24710,SN18KKO,,,
24717,SN18KKO,,,
24724,SN18KKO,,,
24731,SN18KKO,,,
24738,SN18KKO,,,
24745,SN18KKO,,,
24752,SN18KKO,,,
24759,SN18KKO,,,
24766,SN18KKO,,,
24773,SN18KKO,,,
24780,SN18KKO,,,
24787,SN18KKO,,,
24794,SN18KKO,,,
24801,SN18KKO,,,
24808,SN18KMO,,,
24815,SN18KKO,,,
24822,SN18KMO,,,
24829,SN18KMO,,,
24836,SN18KMO,,,
24843,SN18MMO,,,
24850,SN18KMO,,,
24857,SN18KMO,,,
24864,SN18MMO,,,
24871,SN18KKO,,,
24878,SN18MMO,,,
24885,SI18KMO,,,
24892,SI18KMO,,,
24899,SN18KMO,,,
25088,SN66MQM,SN66WOM,,
25578,LZ63LJZ,,,
25592,LZ72ISS,LTZ1563,,
25620,TT75KZS,,,
25641,TT75KZS,,,
25648,TT72KZS,,,
25662,TT75KZS,,,
25669,TT75KZS,,,
28511,BD65EWN,BD65EWN,,
28518,BD65EWN,,,
28525,BB65EWN,,,
