raw frame number,plate number,,CHECKED
30625,FX56LZL,,
30632,EX56JZL,,
30639,EX56MZL,,
30646,EX56JZL,,
30653,EK56MZL,,
30660,EX56JZL,,
30667,EK56LZL,,
30674,EK56WZL,,
30681,EK56WZL,,
30688,EK56WZL,EK56WZL,
30695,EK56JZL,,
30702,EK56JZL,,
30709,EK56JZL,,
30716,EK56WZL,,
30723,EK56JZL,,
30730,EK56WZL,,
30737,EK56WZL,,
30744,EK56WZL,,
30751,EK56JZL,,
30758,EK56JZL,,
30765,EK56JZL,,
30772,EK56WZL,,
30779,EK56WZL,,
30786,EK56WZL,,
30793,EK56WZL,,
30800,EK56JZL,,
30807,EK56WZL,,
30814,EK56WZL,,
30821,EK56WZL,,
30828,EK56JZL,,
30835,EK56WZL,,
30842,EK56WZL,,
30849,EK56WZL,,
30856,EK56WZL,,
30863,EK56WZL,,
30870,EK56WZL,,
30877,EK56WZL,,
30884,EK56JZL,,
30891,EK56WZL,,
30898,EK56WZL,,
30905,EK56WZL,,
30912,EK56WZL,,
30919,EK56WZL,,
30926,EK56WZL,,
30933,EK56WZL,,
30940,EK56WZL,,
30947,EK56WZL,,
30954,EK56WZL,,
30961,EK56WZL,,
30968,EK56WZL,,
30975,EK56WZL,,
30982,EK56WZL,,
30989,EK56WZL,,
30996,EK56WZL,,
31003,EK56WZL,,
31010,EK56JZL,,
31017,EK56JZL,,
31024,EK56JZL,,
31031,EK56JZL,,
31038,EK56JZL,,
31045,EK56JZL,,
31052,EK56LZL,,
31059,EK56WZL,,
31066,EX56JZL,,
31073,EX56LZL,,
31080,EK56MZL,,
31087,EK56LZL,,
31143,SN14TMY,SN14TWY,
31150,SI14TWY,,
31374,TY67URH,YY67URH,
31794,OX15ATI,,
31815,BX13JTT,,
31822,DX42ATT,,
31843,DF54LTT,,
31850,DK45AYT,DK15AYT,
31857,DX45AYT,,
31871,DF34DTT,,
31878,DK45AYT,,
31885,DK45AYT,,
31892,DX53LTT,,
31899,DF34DTT,,
31927,DF34CTT,,
31941,DK45AYT,,
31948,DF34FTT,,
31955,DK43AYT,,
31969,DK45AYT,,
31997,DK45AYT,,
32004,DK45AYT,,
32011,DK45AYT,,
32018,DK43ZYT,,
32032,DK45AYT,,
32046,DK45AYT,,
32067,DK45ATT,,
32095,DK45AYT,,
32130,DK43AYT,,
32158,CX13AYT,,
32165,BX15JYT,,
32172,DK15JYT,,
32347,,LTZ1634,
33397,LC67MKO,,
33404,LC67DXO,,
33411,LC67AXO,LC67AKG,
33642,PI19ECD,PN19ECD,
33915,GN66BNK,GN66BNK,
34538,TX66MHJ,,
34545,TX66AHJ,,
34552,TY66VHJ,,
34559,TX66AHJ,,
34566,YX66JHJ,,
34573,YX66WHJ,,
34594,YX66WHJ,YX66WHJ,
36967,LJ67OXB,,
36981,LJ67OXB,,
36988,LJ67DKD,LJ67DKD,
36995,LJ67OXO,,
37093,TY16YKG,,
37100,YY16YKG,YY16YKG,
37653,BT65JGV,BT65JGV,
39501,TY16YKA,YY16YKA,
39739,,BD65EWR,
