raw frame number,plate number,,CHECKED
1120,,LTZ1426,
1274,,YY67URH,
1372,BV66VKT,BV66VKT,
2233,,LTZ1646,
3430,,LF67EXR,
7616,LZ15HBS,,
7623,LT72HBS,LTZ1685,
7630,LT72HBS,,
8239,,YY67URF,
8512,BV66VDL,,
8519,BV66VJL,BV66VJL,
8526,BV66VJL,,
9401,SN66WOA,SN66WOA,
