frame number ,time stamp,min,sec,number plate
1120,44.8,0,44.8,LTZ1426
1274,50.96,0,50.96,YY67URH
1372,54.88,0,54.88,BV66VKT
2233,89.32,1,29.32,LTZ1646
3430,137.2,2,17.2,LF67EXR
7623,304.92,5,4.92,LTZ1685
8239,329.56,5,29.56,YY67URF
8519,340.76,5,40.76,BV66VJL
9401,376.04,6,16.04,SN66WOA
10696,427.84,7,7.84,YX67VFP
10843,433.72,7,13.72,YX66WHJ
11851,474.04,7,54.04,BG66MJF
13524,540.96,9,0.96,BV66VJG
14203,568.12,9,28.12,BG66MJX
15302,612.08,10,12.08,BD65EWR
15484,619.36,10,19.36,YY67UTF
15862,634.48,10,34.48,YX66WHH
17773,710.92,11,50.92,LF67EYH
17913,716.52,11,56.52,LTZ1543
19404,776.16,12,56.16,LTZ1417
20307,812.28,13,32.28,YH68MWK
20790,831.6,13,51.6,BG66MJO
24332,973.28,16,13.28,SN18KMO
25088,1003.52,16,43.52,SN66WOM
25592,1023.68,17,3.68,LTZ1563
28511,1140.44,19,0.44,BD65EWN
30016,1200.64,20,0.64,BV66VLO
31717,1268.68,21,8.68,LTZ1697
34069,1362.76,22,42.76,BU16OZC
34776,1391.04,23,11.04,LTZ1655
34937,1397.48,23,17.48,BG66MJJ
37156,1486.24,24,46.24,YX66WHD
39564,1582.56,26,22.56,YY67URN
40761,1630.44,27,10.44,BX14TJV
40880,1635.2,27,15.2,YX13BKL
43022,1720.88,28,40.88,YY67URZ
43337,1733.48,28,53.48,SN66WPF
44261,1770.44,29,30.44,BG66MHZ
44681,1787.24,29,47.24,LTZ1427
45486,1819.44,30,19.44,BV66VKK
49189,1967.56,32,47.56,LTZ1788
49756,1990.24,33,10.24,LTZ1656
50463,2018.52,33,38.52,YX18KPE
51443,2057.72,34,17.72,BV66VJF
51590,2063.6,34,23.6,BD65EVT
56301,2252.04,37,32.04,BP15OLN
57316,2292.64,38,12.64,LTZ1778
57449,2297.96,38,17.96,BV66VHA
57533,2301.32,38,21.32,WX66JVA
57778,2311.12,38,31.12,YY67URK
58625,2345,39,5,BV66VKL
59185,2367.4,39,27.4,BV66VKU
60914,2436.56,40,36.56,BD65EWX
61565,2462.6,41,2.6,LTZ1790
62216,2488.64,41,28.64,BV66VLC
63441,2537.64,42,17.64,YY67URO
63567,2542.68,42,22.68,YX18KPF
65982,2639.28,43,59.28,LTZ1189
68369,2734.76,45,34.76,YY67UTL
68866,2754.64,45,54.64,LTZ1705
69468,2778.72,46,18.72,LTZ1811
69678,2787.12,46,27.12,LTZ1442
70658,2826.32,47,6.32,YX16OCG
70735,2829.4,47,9.4,LTZ1456
70875,2835,47,15,BV66VKX
73143,2925.72,48,45.72,BD65EVV
75362,3014.48,50,14.48,YX16OBV
75586,3023.44,50,23.44,LTZ1435
75838,3033.52,50,33.52,YX67VFJ
76650,3066,51,6,BV66VJM
77833,3113.32,51,53.32,YX66WHF
80269,3210.76,53,30.76,LTZ1686
80661,3226.44,53,46.44,BV66VKZ
82733,3309.32,55,9.32,BU16OYV
83811,3352.44,55,52.44,YY67URW
84952,3398.08,56,38.08,BG66MKC
85295,3411.8,56,51.8,LTZ1661
86268,3450.72,57,30.72,BU16OYK
